{
    "data": [
        {
            "str": "5AFCV01"
        },
        {
            "str": "5AFCV02"
        },
        {
            "str": "5AFCV03"
        },
        {
            "str": "5AFCV07"
        },
        {
            "str": "5AFCV08"
        },
        {
            "str": "5AFCV09"
        },
        {
            "str": "5AFCV11"
        },
        {
            "str": "5AFCV12"
        },
        {
            "str": "5AFCV14"
        },
        {
            "str": "5AFCV15"
        },
        {
            "str": "5AFLF04"
        },
        {
            "str": "5AFLF05"
        },
        {
            "str": "5AFOHS01"
        },
        {
            "str": "5AFOHS02"
        },
        {
            "str": "5AFST01"
        },
        {
            "str": "5AFST02"
        },
        {
            "str": "5AFST03"
        },
        {
            "str": "5AFST04"
        },
        {
            "str": "5AFST05"
        },
        {
            "str": "5AFST06"
        },
        {
            "str": "5AFST07"
        },
        {
            "str": "5AFST08"
        },
        {
            "str": "5AFST09"
        },
        {
            "str": "5AFST10"
        },
        {
            "str": "5AFST11"
        },
        {
            "str": "5AFST12"
        },
        {
            "str": "5AFST13"
        },
        {
            "str": "5AFST14"
        },
        {
            "str": "5AFST15"
        },
        {
            "str": "5AFST16"
        },
        {
            "str": "5AFST17"
        },
        {
            "str": "5AFST18"
        }
    ]
}