{
    "data": [
        {
            "t": "0",
            "e": "Power",
            "lnm": "5AMMM02>Main",
            "snm": "Main",
            "c": 1
        },
        {
            "t": "1",
            "e": "Power",
            "lnm": "5AMMM02>Main",
            "snm": "Main",
            "c": 3
        },
        {
            "t": "2",
            "e": "Power",
            "lnm": "5AMMM02>Main",
            "snm": "Main",
            "c": 1
        },
        {
            "t": "3",
            "e": "Power",
            "lnm": "5AMMM02>Main",
            "snm": "Main",
            "c": 3
        },
        {
            "t": "4",
            "e": "Power",
            "lnm": "5AMMM02>Main",
            "snm": "Main",
            "c": 2
        },
        {
            "t": "5",
            "e": "Power",
            "lnm": "5AMMM02>Main",
            "snm": "Main",
            "c": 1
        },
        {
            "t": "6",
            "e": "Power",
            "lnm": "5AMMM02>Main",
            "snm": "Main",
            "c": 3
        },
        {
            "t": "7",
            "e": "Power",
            "lnm": "5AMMM02>Main",
            "snm": "Main",
            "c": 2
        },
        {
            "t": "8",
            "e": "Power",
            "lnm": "5AMMM02>Main",
            "snm": "Main",
            "c": 2
        },
        {
            "t": "9",
            "e": "Power",
            "lnm": "5AMMM02>Main",
            "snm": "Main",
            "c": 2
        },
        {
            "t": "10",
            "e": "Power",
            "lnm": "5AMMM02>Main",
            "snm": "Main",
            "c": 3
        },
        {
            "t": "11",
            "e": "Power",
            "lnm": "5AMMM02>Main",
            "snm": "Main",
            "c": 1
        },
        {
            "t": "12",
            "e": "Power",
            "lnm": "5AMMM02>Main",
            "snm": "Main",
            "c": 3
        },
        {
            "t": "13",
            "e": "Power",
            "lnm": "5AMMM02>Main",
            "snm": "Main",
            "c": 2
        },
        {
            "t": "14",
            "e": "Power",
            "lnm": "5AMMM02>Main",
            "snm": "Main",
            "c": 2
        },
        {
            "t": "15",
            "e": "Power",
            "lnm": "5AMMM02>Main",
            "snm": "Main",
            "c": 2
        },
        {
            "t": "16",
            "e": "Power",
            "lnm": "5AMMM02>Main",
            "snm": "Main",
            "c": 3
        },
        {
            "t": "17",
            "e": "Power",
            "lnm": "5AMMM02>Main",
            "snm": "Main",
            "c": 1
        },
        {
            "t": "18",
            "e": "Power",
            "lnm": "5AMMM02>Main",
            "snm": "Main",
            "c": 2
        },
        {
            "t": "19",
            "e": "Power",
            "lnm": "5AMMM02>Main",
            "snm": "Main",
            "c": 3
        },
        {
            "t": "20",
            "e": "Power",
            "lnm": "5AMMM02>Main",
            "snm": "Main",
            "c": 1
        },
        {
            "t": "21",
            "e": "Power",
            "lnm": "5AMMM02>Main",
            "snm": "Main",
            "c": 3
        },
        {
            "t": "22",
            "e": "Power",
            "lnm": "5AMMM02>Main",
            "snm": "Main",
            "c": 2
        },
        {
            "t": "23",
            "e": "Power",
            "lnm": "5AMMM02>Main",
            "snm": "Main",
            "c": 2
        },
        {
            "t": "0",
            "e": "Power",
            "lnm": "5AMMM03>INDEX",
            "snm": "INDEX",
            "c": 1
        },
        {
            "t": "1",
            "e": "Power",
            "lnm": "5AMMM03>INDEX",
            "snm": "INDEX",
            "c": 0
        },
        {
            "t": "2",
            "e": "Power",
            "lnm": "5AMMM03>INDEX",
            "snm": "INDEX",
            "c": 1
        },
        {
            "t": "3",
            "e": "Power",
            "lnm": "5AMMM03>INDEX",
            "snm": "INDEX",
            "c": 1
        },
        {
            "t": "4",
            "e": "Power",
            "lnm": "5AMMM03>INDEX",
            "snm": "INDEX",
            "c": 1
        },
        {
            "t": "5",
            "e": "Power",
            "lnm": "5AMMM03>INDEX",
            "snm": "INDEX",
            "c": 0
        },
        {
            "t": "6",
            "e": "Power",
            "lnm": "5AMMM03>INDEX",
            "snm": "INDEX",
            "c": 1
        },
        {
            "t": "7",
            "e": "Power",
            "lnm": "5AMMM03>INDEX",
            "snm": "INDEX",
            "c": 1
        },
        {
            "t": "8",
            "e": "Power",
            "lnm": "5AMMM03>INDEX",
            "snm": "INDEX",
            "c": 1
        },
        {
            "t": "9",
            "e": "Power",
            "lnm": "5AMMM03>INDEX",
            "snm": "INDEX",
            "c": 0
        },
        {
            "t": "10",
            "e": "Power",
            "lnm": "5AMMM03>INDEX",
            "snm": "INDEX",
            "c": 1
        },
        {
            "t": "11",
            "e": "Power",
            "lnm": "5AMMM03>INDEX",
            "snm": "INDEX",
            "c": 1
        },
        {
            "t": "12",
            "e": "Power",
            "lnm": "5AMMM03>INDEX",
            "snm": "INDEX",
            "c": 1
        },
        {
            "t": "13",
            "e": "Power",
            "lnm": "5AMMM03>INDEX",
            "snm": "INDEX",
            "c": 1
        },
        {
            "t": "14",
            "e": "Power",
            "lnm": "5AMMM03>INDEX",
            "snm": "INDEX",
            "c": 0
        },
        {
            "t": "15",
            "e": "Power",
            "lnm": "5AMMM03>INDEX",
            "snm": "INDEX",
            "c": 1
        },
        {
            "t": "16",
            "e": "Power",
            "lnm": "5AMMM03>INDEX",
            "snm": "INDEX",
            "c": 1
        },
        {
            "t": "17",
            "e": "Power",
            "lnm": "5AMMM03>INDEX",
            "snm": "INDEX",
            "c": 1
        },
        {
            "t": "18",
            "e": "Power",
            "lnm": "5AMMM03>INDEX",
            "snm": "INDEX",
            "c": 0
        },
        {
            "t": "19",
            "e": "Power",
            "lnm": "5AMMM03>INDEX",
            "snm": "INDEX",
            "c": 1
        },
        {
            "t": "20",
            "e": "Power",
            "lnm": "5AMMM03>INDEX",
            "snm": "INDEX",
            "c": 1
        },
        {
            "t": "21",
            "e": "Power",
            "lnm": "5AMMM03>INDEX",
            "snm": "INDEX",
            "c": 1
        },
        {
            "t": "22",
            "e": "Power",
            "lnm": "5AMMM03>INDEX",
            "snm": "INDEX",
            "c": 1
        },
        {
            "t": "23",
            "e": "Power",
            "lnm": "5AMMM03>INDEX",
            "snm": "INDEX",
            "c": 0
        }
    ]
}