{
    "year_finish_quota": [
        {
            "energy": "CDA",
            "val": 50118
        },
        {
            "energy": "CW",
            "val": 8168
        },
        {
            "energy": "GAS",
            "val": 357
        },
        {
            "energy": "PN2",
            "val": 17718
        },
        {
            "energy": "Power",
            "val": 108925
        },
        {
            "energy": "UPW",
            "val": 4914
        }
    ]
}