{
    "month_total_quota": [
        {
            "energy": "CDA",
            "val": 60000
        },
        {
            "energy": "CW",
            "val": 43434
        },
        {
            "energy": "GAS",
            "val": 444334
        },
        {
            "energy": "PN2",
            "val": 5444
        },
        {
            "energy": "Power",
            "val": 60000
        },
        {
            "energy": "UPW",
            "val": 44444
        }
    ]
}