{
    "pn2_cons_trend": [
        {
            "name": "2019-03-02",
            "value": "132968738.00000000"
        },
        {
            "name": "2019-03-03",
            "value": "96715451.00000000"
        },
        {
            "name": "2019-03-04",
            "value": "89240514.00000000"
        },
        {
            "name": "2019-03-05",
            "value": "94527236.00000000"
        },
        {
            "name": "2019-03-06",
            "value": "96603210.00000000"
        },
        {
            "name": "2019-03-07",
            "value": "95343055.00000000"
        },
        {
            "name": "2019-03-08",
            "value": "92330520.00000000"
        }
    ],
    "power_cons_trend": [
        {
            "name": "2019-03-02",
            "value": "426203.00000000"
        },
        {
            "name": "2019-03-03",
            "value": "433254.00000000"
        },
        {
            "name": "2019-03-04",
            "value": "422813.00000000"
        },
        {
            "name": "2019-03-05",
            "value": "427327.00000000"
        },
        {
            "name": "2019-03-06",
            "value": "438378.00000000"
        },
        {
            "name": "2019-03-07",
            "value": "430344.00000000"
        },
        {
            "name": "2019-03-08",
            "value": "430755.00000000"
        }
    ],
    "factory_unit_cons": [
        {
            "value": 21.73448392229,
            "name": "2019-03-02",
            "energy": "PN2",
            "department": null
        },
        {
            "value": 0.06164946005,
            "name": "2019-03-02",
            "energy": "Power",
            "department": null
        },
        {
            "value": 1.989689771744,
            "name": "2019-03-02",
            "energy": "UPW",
            "department": null
        },
        {
            "value": 239.104655658656,
            "name": "2019-03-02",
            "energy": "CDA",
            "department": null
        },
        {
            "value": 1.82664740893,
            "name": "2019-03-03",
            "energy": "UPW",
            "department": null
        },
        {
            "value": 189.361219059523,
            "name": "2019-03-03",
            "energy": "CDA",
            "department": null
        },
        {
            "value": 13.577602024302,
            "name": "2019-03-03",
            "energy": "PN2",
            "department": null
        },
        {
            "value": 0.054504125229,
            "name": "2019-03-03",
            "energy": "Power",
            "department": null
        },
        {
            "value": 0.075468859076,
            "name": "2019-03-04",
            "energy": "Power",
            "department": null
        },
        {
            "value": 2.50958405407,
            "name": "2019-03-04",
            "energy": "UPW",
            "department": null
        },
        {
            "value": 257.248653855799,
            "name": "2019-03-04",
            "energy": "CDA",
            "department": null
        },
        {
            "value": 17.704529580902,
            "name": "2019-03-04",
            "energy": "PN2",
            "department": null
        },
        {
            "value": 0.068617983359,
            "name": "2019-03-05",
            "energy": "Power",
            "department": null
        },
        {
            "value": 2.51417490844,
            "name": "2019-03-05",
            "energy": "UPW",
            "department": null
        },
        {
            "value": 253.344098487642,
            "name": "2019-03-05",
            "energy": "CDA",
            "department": null
        },
        {
            "value": 17.164560994691,
            "name": "2019-03-05",
            "energy": "PN2",
            "department": null
        },
        {
            "value": 18.510611699134,
            "name": "2019-03-06",
            "energy": "PN2",
            "department": null
        },
        {
            "value": 0.074765918401,
            "name": "2019-03-06",
            "energy": "Power",
            "department": null
        },
        {
            "value": 2.659369574338,
            "name": "2019-03-06",
            "energy": "UPW",
            "department": null
        },
        {
            "value": 270.483368523742,
            "name": "2019-03-06",
            "energy": "CDA",
            "department": null
        },
        {
            "value": 2.453740275076,
            "name": "2019-03-07",
            "energy": "UPW",
            "department": null
        },
        {
            "value": 251.68518118389,
            "name": "2019-03-07",
            "energy": "CDA",
            "department": null
        },
        {
            "value": 17.004650317847,
            "name": "2019-03-07",
            "energy": "PN2",
            "department": null
        },
        {
            "value": 0.067921408618,
            "name": "2019-03-07",
            "energy": "Power",
            "department": null
        },
        {
            "value": 0.124629515399,
            "name": "2019-03-08",
            "energy": "Power",
            "department": null
        },
        {
            "value": 4.463949721724,
            "name": "2019-03-08",
            "energy": "UPW",
            "department": null
        },
        {
            "value": 458.683258088745,
            "name": "2019-03-08",
            "energy": "CDA",
            "department": null
        },
        {
            "value": 30.325120273681,
            "name": "2019-03-08",
            "energy": "PN2",
            "department": null
        }
    ],
    "upw_cons_trend": [
        {
            "name": "2019-03-02",
            "value": "13755380.00000000"
        },
        {
            "name": "2019-03-03",
            "value": "14520044.00000000"
        },
        {
            "name": "2019-03-04",
            "value": "14059902.00000000"
        },
        {
            "name": "2019-03-05",
            "value": "15657336.00000000"
        },
        {
            "name": "2019-03-06",
            "value": "15592788.00000000"
        },
        {
            "name": "2019-03-07",
            "value": "15546680.00000000"
        },
        {
            "name": "2019-03-08",
            "value": "15428678.00000000"
        }
    ],
    "cda_cons_trend": [
        {
            "name": "2019-03-02",
            "value": "1670298050.00000000"
        },
        {
            "name": "2019-03-03",
            "value": "1516447876.00000000"
        },
        {
            "name": "2019-03-04",
            "value": "1451180022.00000000"
        },
        {
            "name": "2019-03-05",
            "value": "1590098984.00000000"
        },
        {
            "name": "2019-03-06",
            "value": "1597866754.00000000"
        },
        {
            "name": "2019-03-07",
            "value": "1607051804.00000000"
        },
        {
            "name": "2019-03-08",
            "value": "1597821314.00000000"
        }
    ],
    "factory_product": [
        {
            "value": 6913329,
            "name": "2019-03-02",
            "energy": null,
            "department": null
        },
        {
            "value": 7949013,
            "name": "2019-03-03",
            "energy": null,
            "department": null
        },
        {
            "value": 5602483,
            "name": "2019-03-04",
            "energy": null,
            "department": null
        },
        {
            "value": 6227624,
            "name": "2019-03-05",
            "energy": null,
            "department": null
        },
        {
            "value": 5863340,
            "name": "2019-03-06",
            "energy": null,
            "department": null
        },
        {
            "value": 6335911,
            "name": "2019-03-07",
            "energy": null,
            "department": null
        },
        {
            "value": 3456284,
            "name": "2019-03-08",
            "energy": null,
            "department": null
        }
    ]
}